[
  {
    "id": null,
    "macID": null,
    "name": "Логический контроллер",
    "logictype": "logicController",
    "type": "element",
    "subtype": "device",
    "version": "v0.0.1",
    "parentID": null,
    "timers": [true, true],
    "blocks": [],
    "settings": {
      "base": {
        "ip": "192.168.1.20",
        "mask": "255.255.255.0",
        "gateway": "192.168.1.1",
        "dns": "8.8.8.8",
        "dnsSecond": "8.8.8.0",
        "portHTTP": "80",
        "portTelnet": "455",
        "ipMulticast": "219.22.23.22",
        "portMulticastRecive": "457",
        "portMulticastSend": "458",
        "portConfigTCP": "490",
        "portLogTCP": "491",
        "ipCloud": "492",
        "portCloudRecive": "493",
        "portCloudSend": "494"
      }
    }
  },
  {
    "id": null,
    "macID": null,
    "name": "Устройство  Input",
    "logictype": "inputDevice",
    "type": "element",
    "subtype": "device",
    "version": "v0.2.1",
    "parentID": null,
    "timers": [true, true],
    "blocks": [
      {
        "name": "Input 1",
        "active": false,
        "events": {},
        "objects": []
      },
      {
        "name": "Input 2",
        "active": false,
        "events": {},
        "objects": []
      },
      {
        "name": "Input 3",
        "active": false,
        "events": {},
        "objects": []
      },
      {
        "name": "Input 4",
        "active": false,
        "events": {},
        "objects": []
      },
      {
        "name": "Input 5",
        "active": false,
        "events": {},
        "objects": []
      },
      {
        "name": "Input 6",
        "active": false,
        "events": {},
        "objects": []
      },
      {
        "name": "Input 7",
        "active": false,
        "events": {},
        "objects": []
      },
      {
        "name": "Input 8",
        "active": false,
        "events": {},
        "objects": []
      },
      {
        "name": "Input 9",
        "active": false,
        "events": {},
        "objects": []
      },
      {
        "name": "Input 10",
        "active": false,
        "events": {},
        "objects": []
      }
    ],
    "objects": [],
    "settings": {
      "base": {
        "ip": "192.168.1.20",
        "mask": "255.255.255.0",
        "gateway": "192.168.1.1",
        "dns": "8.8.8.8",
        "dnsSecond": "8.8.8.0",
        "portHTTP": "80",
        "portTelnet": "455",
        "ipMulticast": "219.22.23.22",
        "portMulticastRecive": "457",
        "portMulticastSend": "458",
        "portConfigTCP": "490",
        "portLogTCP": "491",
        "ipCloud": "492",
        "portCloudRecive": "493",
        "portCloudSend": "494"
      }
    }
  }
]
